<svg width="24" height="24" viewBox="0 0 24 24" fill="none" xmlns="http://www.w3.org/2000/svg">
<g clip-path="url(#clip0_155_103)">
<path d="M18.3853 7.37301C18.2084 7.3194 18.0474 7.22315 17.9165 7.09272C17.7855 6.96229 17.6886 6.80167 17.6343 6.62501C17.3281 5.58706 16.8145 4.62202 16.1245 3.78831C15.4345 2.95459 14.5826 2.26953 13.6202 1.77457C12.6579 1.27961 11.6051 0.985056 10.5256 0.908721C9.4461 0.832387 8.36235 0.975863 7.33991 1.33047C6.31747 1.68507 5.3776 2.24343 4.57718 2.97176C3.77677 3.70008 3.13244 4.58323 2.68319 5.56777C2.23395 6.5523 1.98912 7.61774 1.96353 8.69963C1.93794 9.78151 2.13212 10.8573 2.53432 11.862C2.62639 12.0738 2.64581 12.31 2.58955 12.5339C2.5333 12.7579 2.40453 12.9569 2.22332 13.1C1.42705 13.691 0.805363 14.4863 0.424069 15.4017C0.0427744 16.3171 -0.0839466 17.3185 0.0573177 18.3C0.277771 19.6269 0.966642 20.8308 1.9989 21.6931C3.03116 22.5555 4.33838 23.0192 5.68332 23H14.0003V15.414L12.7073 16.707C12.5187 16.8892 12.2661 16.99 12.0039 16.9877C11.7417 16.9854 11.4909 16.8802 11.3055 16.6948C11.1201 16.5094 11.0149 16.2586 11.0126 15.9964C11.0104 15.7342 11.1112 15.4816 11.2933 15.293L12.8793 13.707C13.4419 13.1446 14.2048 12.8287 15.0003 12.8287C15.7958 12.8287 16.5587 13.1446 17.1213 13.707L18.7073 15.293C18.8028 15.3853 18.879 15.4956 18.9314 15.6176C18.9838 15.7396 19.0114 15.8708 19.0126 16.0036C19.0137 16.1364 18.9884 16.2681 18.9381 16.391C18.8879 16.5139 18.8136 16.6255 18.7197 16.7194C18.6258 16.8133 18.5142 16.8876 18.3913 16.9378C18.2684 16.9881 18.1367 17.0134 18.0039 17.0123C17.8711 17.0111 17.7399 16.9835 17.6179 16.9311C17.4959 16.8787 17.3856 16.8025 17.2933 16.707L16.0003 15.414V22.987C17.9908 22.9472 19.8984 22.183 21.3658 20.8375C22.8331 19.492 23.7595 17.6576 23.9713 15.678C24.1302 13.8636 23.6625 12.0496 22.646 10.5384C21.6295 9.02709 20.1257 7.9099 18.3853 7.37301V7.37301Z" fill="white"/>
</g>
<defs>
<clipPath id="clip0_155_103">
<rect width="24" height="24" fill="white"/>
</clipPath>
</defs>
</svg>
